\relax 
\@writefile{toc}{\contentsline {section}{\numberline {1}Excercise 2.8}{1}}
\@writefile{toc}{\contentsline {section}{\numberline {2}Problem 2.14}{1}}
\@writefile{toc}{\contentsline {subsection}{\numberline {2.a}}{1}}
